Passive,,Regulated,
X,Y,X,Y
0.5275505566916605,4.986366734832992,0.520449897750511,0.6013406044080902
1.5193137923199267,4.993069756873438,1.5244830720290838,0.9107021131561019
2.4963076573506013,4.092251760963418,2.505566916609861,0.999659168370826
3.5297659622812985,3.5224948875255624,3.5078959327425583,0.8966144058168588
