/* example.i */
%module postprocess_flow 
%{
  #define SWIG_FILE_WITH_INIT
  /* Put header files here or function declarations like below */
  #include "postprocess_flow.h"

%}
%include "postprocess_flow.h"

