# vtk DataFile Version 4.2
vtk output
ASCII
DATASET POLYDATA
POINTS 401 float
-0.367568 -1.08518 1.2497 -0.34484 -1.12451 1.2238 -0.295617 -1.15122 1.22517 
-0.351096 -1.15418 1.19114 -0.29642 -1.1536 1.20813 -0.261519 -1.17107 1.22212 
-0.346483 -1.15667 1.18385 -0.351552 -1.16321 1.18192 -0.3021 -1.15383 1.19702 
-0.296861 -1.15736 1.18267 -0.236775 -1.18131 1.19078 -0.263751 -1.1721 1.21199 
-0.347789 -1.15696 1.17925 -0.33904 -1.15916 1.18231 -0.340347 -1.16422 1.19803 
-0.35023 -1.17854 1.16822 -0.309133 -1.15412 1.18327 -0.307844 -1.15399 1.18627 
-0.29496 -1.15808 1.1811 -0.298876 -1.15746 1.17857 -0.238544 -1.18352 1.17347 
-0.235269 -1.18172 1.19031 -0.279305 -1.16913 1.20865 -0.262567 -1.17376 1.2027 
-0.350305 -1.15751 1.17039 -0.349311 -1.15729 1.17389 -0.335975 -1.16002 1.18279 
-0.335606 -1.16046 1.1806 -0.328279 -1.16673 1.20569 -0.341482 -1.16248 1.20747 
-0.334875 -1.18312 1.16808 -0.339974 -1.27267 1.08672 -0.310258 -1.15416 1.18107 
-0.309838 -1.15438 1.18037 -0.328815 -1.14655 1.19846 -0.310634 -1.15338 1.18559 
-0.288997 -1.15999 1.17865 -0.323859 -1.14821 1.19783 -0.30122 -1.15935 1.16221 
-0.300296 -1.15834 1.17041 -0.239815 -1.18511 1.16104 -0.240033 -1.18493 1.1619 
-0.226107 -1.18369 1.19082 -0.229661 -1.18316 1.18906 -0.283594 -1.16831 1.20773 
-0.28884 -1.16738 1.20611 -0.256002 -1.17653 1.19406 -0.262204 -1.1753 1.19298 
-0.366217 -1.15143 1.17881 -0.350813 -1.15762 1.1686 -0.380815 -1.14527 1.19055 
-0.351954 -1.15765 1.16608 -0.346302 -1.15621 1.18823 -0.32517 -1.16271 1.18683 
-0.33527 -1.16068 1.17983 -0.324629 -1.16451 1.17585 -0.324096 -1.1676 1.20835 
-0.323835 -1.16773 1.20799 -0.346187 -1.16072 1.20977 -0.344597 -1.15915 1.2236 
-0.328634 -1.18588 1.16188 -0.323378 -1.18602 1.17164 -0.302311 -1.28371 1.07949 
-0.352482 -1.27033 1.07928 -0.330468 -1.14696 1.19282 -0.311403 -1.15421 1.17883 
-0.329469 -1.14665 1.19654 -0.319065 -1.15142 1.18421 -0.29906 -1.16128 1.1531 
-0.302832 -1.16025 1.15354 -0.306072 -1.15736 1.16705 -0.301862 -1.15885 1.16438 
-0.240919 -1.18649 1.15024 -0.240326 -1.18575 1.15604 -0.262612 -1.17865 1.17362 
-0.240847 -1.18538 1.15771 -0.248889 -1.17757 1.20261 -0.221203 -1.18465 1.1917 
-0.227777 -1.18381 1.18754 -0.225983 -1.18395 1.1893 -0.311506 -1.15927 1.22246 
-0.290544 -1.16698 1.20623 -0.290404 -1.16765 1.20201 -0.307838 -1.16114 1.21614 
-0.244941 -1.1802 1.18605 -0.252799 -1.17808 1.18851 -0.266366 -1.17628 1.18031 
-0.262605 -1.17561 1.19032 -0.32007 -1.16939 1.15234 -0.352053 -1.1579 1.16423 
-0.322911 -1.16879 1.15072 -0.354052 -1.15777 1.16102 -0.315833 -1.1648 1.19184 
-0.307567 -1.16733 1.19173 -0.355296 -1.1533 1.19037 -0.333725 -1.16163 1.17657 
-0.324265 -1.16467 1.17552 -0.321394 -1.16565 1.17477 -0.339894 -1.16201 1.21613 
-0.315709 -1.16935 1.21367 -0.323014 -1.16798 1.20798 -0.317642 -1.16944 1.20914 
-0.356888 -1.15669 1.2151 -0.359347 -1.1559 1.21547 -0.349698 -1.15645 1.23142 
-0.346319 -1.15818 1.22666 -0.324391 -1.18776 1.15767 -0.327368 -1.18644 1.16062 
-0.321026 -1.18626 1.17478 -0.296257 -1.19313 1.17811 -0.295994 -1.28601 1.07488 
-0.300022 -1.28428 1.07974 -0.364089 -1.26791 1.07425 -0.358112 -1.26947 1.0745 
-0.303533 -1.1571 1.17516 -0.325997 -1.14978 1.18333 -0.324063 -1.1529 1.16581 
-0.310766 -1.1593 1.14633 -0.32436 -1.15095 1.17765 -0.30993 -1.15681 1.1642 
-0.303767 -1.15872 1.16204 -0.30505 -1.1588 1.15932 -0.271968 -1.17695 1.17245 
-0.238828 -1.18656 1.15289 -0.210832 -1.19374 1.14214 -0.240884 -1.18539 1.15759 
-0.247139 -1.17859 1.19757 -0.225814 -1.18451 1.18581 -0.24437 -1.17901 1.19881 
-0.224218 -1.18433 1.18935 -0.264216 -1.17567 1.19234 -0.296951 -1.16576 1.20486 
-0.263757 -1.17483 1.19587 -0.238545 -1.18226 1.18189 -0.25274 -1.17815 1.18811 
-0.247165 -1.18001 1.18405 -0.266754 -1.17623 1.18007 -0.268411 -1.17686 1.1734 
-0.253285 -1.17866 1.18393 -0.272115 -1.17274 1.19531 -0.383232 -1.14654 1.17646 
-0.357464 -1.15779 1.15396 -0.307144 -1.16745 1.19182 -0.30503 -1.16797 1.19264 
-0.336425 -1.16033 1.18188 -0.315697 -1.16848 1.16744 -0.31815 -1.1666 1.17505 
-0.316211 -1.16794 1.17003 -0.317828 -1.16972 1.20682 -0.319786 -1.16918 1.20647 
-0.317412 -1.16946 1.20942 -0.314244 -1.17041 1.20949 -0.340495 -1.16324 1.20605 
-0.360656 -1.15544 1.21587 -0.371291 -1.14874 1.2391 -0.347155 -1.15766 1.22848 
-0.350745 -1.17883 1.16935 -0.322456 -1.18861 1.15574 -0.327335 -1.18746 1.15374 
-0.349282 -1.17895 1.17035 -0.314583 -1.18634 1.18735 -0.3511 -1.17612 1.18811 
-0.288598 -1.19547 1.17773 -0.28487 -1.19604 1.1814 -0.292907 -1.28714 1.07263 
-0.285942 -1.28949 1.06902 -0.294501 -1.28539 1.08245 -0.29905 -1.28451 1.07995 
-0.370357 -1.2666 1.07154 -0.36676 -1.26735 1.07309 -0.364906 -1.26924 1.06278 
-0.360229 -1.26932 1.07142 -0.351259 -1.14038 1.19805 -0.328833 -1.14906 1.18323 
-0.287282 -1.16482 1.15106 -0.311855 -1.15656 1.1626 -0.328644 -1.15006 1.17644 
-0.308175 -1.15843 1.15648 -0.321244 -1.15315 1.1687 -0.307146 -1.15879 1.15585 
-0.260079 -1.18069 1.1639 -0.23624 -1.18784 1.14824 -0.21273 -1.18801 1.17905 
-0.220421 -1.18649 1.18067 -0.276385 -1.17122 1.20048 -0.25205 -1.17934 1.18126 
-0.263257 -1.17538 1.19245 -0.237665 -1.18341 1.17553 -0.284605 -1.17078 1.18944 
-0.273249 -1.1754 1.17595 -0.270072 -1.17786 1.16435 -0.270758 -1.177 1.16901 
-0.274038 -1.17258 1.19478 -0.240425 -1.18293 1.17463 -0.332416 -1.16749 1.14071 
-0.360026 -1.15782 1.14847 -0.322807 -1.16209 1.19995 -0.29548 -1.17062 1.1943 
-0.296258 -1.16968 1.19903 -0.2996 -1.16863 1.19927 -0.288324 -1.178 1.1532 
-0.315542 -1.16855 1.16728 -0.340314 -1.15882 1.18661 -0.308376 -1.16944 1.17593 
-0.341232 -1.15922 1.18305 -0.312752 -1.16942 1.16715 -0.337958 -1.16273 1.21671 
-0.314426 -1.17088 1.20595 -0.340308 -1.16151 1.22066 -0.314629 -1.16986 1.21245 
-0.310174 -1.17166 1.20934 -0.309698 -1.17169 1.21013 -0.296318 -1.19741 1.14417 
-0.320869 -1.18931 1.15417 -0.353283 -1.17861 1.16525 -0.327459 -1.18794 1.15019 
-0.312787 -1.1863 1.1913 -0.312261 -1.18647 1.19114 -0.281666 -1.19754 1.17765 
-0.283172 -1.19727 1.17638 -0.284433 -1.19604 1.18224 -0.279517 -1.19761 1.1815 
-0.289358 -1.28844 1.07004 -0.287516 -1.28921 1.06802 -0.284811 -1.28974 1.06941 
-0.281111 -1.29111 1.0666 -0.320112 -1.27872 1.08839 -0.291392 -1.28577 1.08582 
-0.28995 -1.28707 1.07905 -0.292346 -1.28643 1.07905 -0.384237 -1.26209 1.07482 
-0.374999 -1.26563 1.06953 -0.391189 -1.25949 1.07887 -0.370678 -1.26683 1.06918 
-0.365385 -1.27073 1.05077 -0.366007 -1.26923 1.06065 -0.364254 -1.2686 1.06881 
-0.368463 -1.26751 1.06855 -0.326775 -1.15125 1.17125 -0.313552 -1.15637 1.16096 
-0.281864 -1.16767 1.14125 -0.315784 -1.15804 1.14618 -0.289736 -1.16489 1.14577 
-0.307519 -1.1588 1.15513 -0.234253 -1.18286 1.1878 -0.218103 -1.1873 1.17873 
-0.225112 -1.18689 1.16901 -0.235327 -1.18426 1.17333 -0.285128 -1.17324 1.17224 
-0.270968 -1.17834 1.15983 -0.277829 -1.17483 1.17272 -0.27359 -1.17702 1.16466 
-0.220126 -1.18861 1.16407 -0.232603 -1.18568 1.16794 -0.269689 -1.17915 1.18101 
-0.289431 -1.17221 1.19602 -0.311878 -1.1645 1.20709 -0.29371 -1.17012 1.20126 
-0.343968 -1.15867 1.18207 -0.312499 -1.16993 1.16423 -0.282137 -1.1784 1.16233 
-0.298952 -1.17229 1.17604 -0.298504 -1.17636 1.19814 -0.313198 -1.17132 1.20549 
-0.28801 -1.17904 1.19939 -0.31187 -1.17028 1.21523 -0.33315 -1.16384 1.22058 
-0.295375 -1.17613 1.20935 -0.307291 -1.17193 1.21343 -0.327886 -1.16551 1.21903 
-0.328308 -1.18117 1.19823 -0.303128 -1.18899 1.19247 -0.278307 -1.19853 1.17767 
-0.274591 -1.2 1.1752 -0.281424 -1.19815 1.17397 -0.281722 -1.19787 1.17528 
-0.309966 -1.18831 1.19331 -0.283437 -1.19531 1.1893 -0.272238 -1.19827 1.19179 
-0.272785 -1.19846 1.18941 -0.280395 -1.29172 1.06351 -0.318225 -1.28106 1.07671 
-0.281748 -1.29122 1.06449 -0.288742 -1.28931 1.06482 -0.301287 -1.28571 1.0712 
-0.280263 -1.29041 1.07348 -0.275953 -1.29165 1.07278 -0.274156 -1.29302 1.06623 
-0.277376 -1.29212 1.06649 -0.284648 -1.2883 1.08039 -0.284668 -1.28872 1.07728 
-0.278967 -1.28929 1.08429 -0.33712 -1.27485 1.08941 -0.281767 -1.28886 1.08192 
-0.346892 -1.27487 1.06288 -0.382506 -1.26407 1.06627 -0.388381 -1.26108 1.07337 
-0.373757 -1.26648 1.06572 -0.372729 -1.26837 1.05374 -0.410504 -1.25498 1.07117 
-0.367125 -1.26907 1.05966 -0.380283 -1.26348 1.0726 -0.366217 -1.2683 1.06715 
-0.397551 -1.25812 1.07543 -0.369917 -1.2672 1.06796 -0.333666 -1.14964 1.17027 
-0.309525 -1.15893 1.15087 -0.192924 -1.19384 1.16577 -0.209757 -1.19011 1.1724 
-0.231587 -1.19041 1.1392 -0.272617 -1.17906 1.1526 -0.301523 -1.16828 1.20222 
-0.276233 -1.17563 1.19999 -0.265973 -1.17927 1.18698 -0.286699 -1.17126 1.20794 
-0.336019 -1.16349 1.21668 -0.308169 -1.17314 1.20345 -0.329713 -1.16417 1.22397 
-0.310985 -1.17041 1.21617 -0.339063 -1.16119 1.22895 -0.306704 -1.17201 1.21409 
-0.29779 -1.19275 1.18608 -0.275725 -1.19929 1.17771 -0.300223 -1.19023 1.19657 
-0.281485 -1.19436 1.19975 -0.268913 -1.19882 1.19479 -0.271215 -1.19838 1.19316 
-0.266209 -1.20038 1.18963 -0.271515 -1.19889 1.18903 -0.302446 -1.28626 1.06857 
-0.275345 -1.29356 1.05982 -0.269251 -1.29433 1.06162 -0.277957 -1.29256 1.0621 
-0.276952 -1.29059 1.07868 -0.268966 -1.29272 1.07866 -0.299672 -1.28585 1.07821 
-0.264285 -1.29423 1.0768 -0.292774 -1.2885 1.07049 -0.264224 -1.29576 1.06559 
-0.27606 -1.29243 1.06684 -0.268046 -1.29436 1.06838 -0.312128 -1.28137 1.08672 
-0.280286 -1.28928 1.08182 -0.297839 -1.28485 1.08562 -0.271527 -1.29117 1.08511 
-0.418573 -1.25199 1.0748 -0.385366 -1.26347 1.06503 -0.354669 -1.27272 1.06121 
-0.377934 -1.26605 1.06065 -0.394658 -1.26022 1.06616 -0.369167 -1.26873 1.05808 
-0.252911 -1.18291 1.18815 -0.274706 -1.17602 1.20047 -0.315038 -1.16209 1.22247 
-0.286128 -1.17134 1.20854 -0.279151 -1.18131 1.20064 -0.297046 -1.17346 1.22403 
-0.256458 -1.20496 1.16942 -0.27482 -1.19956 1.17773 -0.269218 -1.19792 1.20036 
-0.2675 -1.19868 1.19867 -0.289406 -1.19374 1.19955 -0.254886 -1.20376 1.18953 
-0.290837 -1.19327 1.19733 -0.266546 -1.20095 1.18506 -0.251878 -1.29896 1.05613 
-0.27577 -1.2933 1.06095 -0.284812 -1.28894 1.08228 -0.265956 -1.29332 1.0802 
-0.241245 -1.29964 1.07156 -0.261012 -1.29498 1.07768 -0.259974 -1.29714 1.06377 
-0.255777 -1.29756 1.06891 -0.269655 -1.29192 1.07937 -0.279919 -1.28935 1.08197 
-0.393642 -1.26085 1.06436 -0.381681 -1.26569 1.05588 -0.299459 -1.18947 1.21235 
-0.263732 -1.1991 1.20342 -0.240268 -1.20778 1.18334 -0.247391 -1.20608 1.18889 
-0.243565 -1.20752 1.17524 -0.265223 -1.20148 1.18409 -0.245149 -1.29824 1.07546 
-0.261121 -1.29422 1.08314 -0.294922 -1.28711 1.08538 -0.253509 -1.29679 1.07912 
-0.242058 -1.20528 1.19416 -0.259737 -1.19962 1.20802 -0.26397 -1.20164 1.19586 
-0.244751 -1.20691 1.18858 -0.286714 -1.19536 1.19327 -0.264216 -1.20188 1.1834 
-0.220181 -1.30432 1.07159 -0.251723 -1.29724 1.07935 -0.28586 -1.19226 1.21914 
-0.25525 -1.20038 1.21192 -0.253291 -1.20498 1.17874 -0.262051 -1.20274 1.18194 
-0.282676 -1.19693 1.19073 -0.252515 -1.20661 1.17486 
LINES 400 1200
2 0 1 
2 1 2 
2 1 3 
2 2 4 
2 2 5 
2 3 6 
2 3 7 
2 4 8 
2 4 9 
2 5 10 
2 5 11 
2 6 12 
2 6 13 
2 7 14 
2 7 15 
2 8 16 
2 8 17 
2 9 18 
2 9 19 
2 10 20 
2 10 21 
2 11 22 
2 11 23 
2 12 24 
2 12 25 
2 13 26 
2 13 27 
2 14 28 
2 14 29 
2 15 30 
2 15 31 
2 16 32 
2 16 33 
2 17 34 
2 17 35 
2 18 36 
2 18 37 
2 19 38 
2 19 39 
2 20 40 
2 20 41 
2 21 42 
2 21 43 
2 22 44 
2 22 45 
2 23 46 
2 23 47 
2 24 48 
2 24 49 
2 25 50 
2 25 51 
2 26 52 
2 26 53 
2 27 54 
2 27 55 
2 28 56 
2 28 57 
2 29 58 
2 29 59 
2 30 60 
2 30 61 
2 31 62 
2 31 63 
2 32 64 
2 32 65 
2 35 66 
2 35 67 
2 38 68 
2 38 69 
2 39 70 
2 39 71 
2 40 72 
2 40 73 
2 41 74 
2 41 75 
2 42 76 
2 42 77 
2 43 78 
2 43 79 
2 44 80 
2 44 81 
2 45 82 
2 45 83 
2 46 84 
2 46 85 
2 47 86 
2 47 87 
2 49 88 
2 49 89 
2 51 90 
2 51 91 
2 53 92 
2 53 93 
2 54 94 
2 54 95 
2 55 96 
2 55 97 
2 56 98 
2 56 99 
2 57 100 
2 57 101 
2 58 102 
2 58 103 
2 59 104 
2 59 105 
2 60 106 
2 60 107 
2 61 108 
2 61 109 
2 62 110 
2 62 111 
2 63 112 
2 63 113 
2 67 114 
2 67 115 
2 69 116 
2 69 117 
2 70 118 
2 70 119 
2 71 120 
2 71 121 
2 73 122 
2 73 123 
2 75 124 
2 75 125 
2 78 126 
2 78 127 
2 79 128 
2 79 129 
2 81 130 
2 81 131 
2 84 132 
2 84 133 
2 85 134 
2 85 135 
2 86 136 
2 86 137 
2 87 138 
2 87 139 
2 91 140 
2 91 141 
2 93 142 
2 93 143 
2 96 144 
2 96 145 
2 97 146 
2 97 147 
2 100 148 
2 100 149 
2 101 150 
2 101 151 
2 103 152 
2 103 153 
2 105 154 
2 105 155 
2 106 156 
2 106 157 
2 107 158 
2 107 159 
2 108 160 
2 108 161 
2 109 162 
2 109 163 
2 110 164 
2 110 165 
2 111 166 
2 111 167 
2 112 168 
2 112 169 
2 113 170 
2 113 171 
2 115 172 
2 115 173 
2 119 174 
2 119 175 
2 120 176 
2 120 177 
2 121 178 
2 121 179 
2 123 180 
2 123 181 
2 127 182 
2 127 183 
2 134 184 
2 134 185 
2 135 186 
2 135 187 
2 136 188 
2 136 189 
2 137 190 
2 137 191 
2 138 192 
2 138 193 
2 141 194 
2 141 195 
2 142 196 
2 142 197 
2 143 198 
2 143 199 
2 145 200 
2 145 201 
2 146 202 
2 146 203 
2 147 204 
2 147 205 
2 148 206 
2 148 207 
2 150 208 
2 150 209 
2 151 210 
2 151 211 
2 157 212 
2 157 213 
2 158 214 
2 158 215 
2 160 216 
2 160 217 
2 162 218 
2 162 219 
2 163 220 
2 163 221 
2 164 222 
2 164 223 
2 165 224 
2 165 225 
2 166 226 
2 166 227 
2 167 228 
2 167 229 
2 168 230 
2 168 231 
2 169 232 
2 169 233 
2 170 234 
2 170 235 
2 171 236 
2 171 237 
2 175 238 
2 175 239 
2 177 240 
2 177 241 
2 179 242 
2 179 243 
2 183 244 
2 183 245 
2 187 246 
2 187 247 
2 190 248 
2 190 249 
2 191 250 
2 191 251 
2 193 252 
2 193 253 
2 197 254 
2 197 255 
2 198 256 
2 198 257 
2 201 258 
2 201 259 
2 203 260 
2 203 261 
2 207 262 
2 207 263 
2 209 264 
2 209 265 
2 210 266 
2 210 267 
2 211 268 
2 211 269 
2 217 270 
2 217 271 
2 218 272 
2 218 273 
2 219 274 
2 219 275 
2 220 276 
2 220 277 
2 221 278 
2 221 279 
2 222 280 
2 222 281 
2 222 282 
2 223 283 
2 223 284 
2 224 285 
2 224 286 
2 225 287 
2 225 288 
2 228 289 
2 228 290 
2 228 291 
2 229 292 
2 229 293 
2 231 294 
2 231 295 
2 233 296 
2 233 297 
2 235 298 
2 235 299 
2 235 300 
2 236 301 
2 236 302 
2 237 303 
2 237 304 
2 243 305 
2 243 306 
2 245 307 
2 245 308 
2 249 309 
2 249 310 
2 255 311 
2 255 312 
2 257 313 
2 257 314 
2 263 315 
2 263 316 
2 265 317 
2 265 318 
2 268 319 
2 268 320 
2 272 321 
2 272 322 
2 277 323 
2 277 324 
2 278 325 
2 278 326 
2 279 327 
2 279 328 
2 280 329 
2 280 330 
2 282 331 
2 282 332 
2 285 333 
2 285 334 
2 286 335 
2 286 336 
2 287 337 
2 287 338 
2 288 339 
2 288 340 
2 289 341 
2 289 342 
2 293 343 
2 293 344 
2 295 345 
2 295 346 
2 297 347 
2 297 348 
2 300 349 
2 300 350 
2 312 351 
2 312 352 
2 314 353 
2 314 354 
2 320 355 
2 320 356 
2 322 357 
2 322 358 
2 326 359 
2 326 360 
2 327 361 
2 327 362 
2 328 363 
2 328 364 
2 332 365 
2 332 366 
2 334 367 
2 334 368 
2 336 369 
2 336 370 
2 338 371 
2 338 372 
2 342 373 
2 342 374 
2 348 375 
2 348 376 
2 360 377 
2 360 378 
2 362 379 
2 362 380 
2 364 381 
2 364 382 
2 368 383 
2 368 384 
2 370 385 
2 370 386 
2 378 387 
2 378 388 
2 380 389 
2 380 390 
2 382 391 
2 382 392 
2 386 393 
2 386 394 
2 388 395 
2 388 396 
2 392 397 
2 392 398 
2 398 399 
2 398 400 

CELL_DATA 400
FIELD FieldData 2
Vessel%20order 1 400 int
6 5 5 4 5 4 5 3 4 
4 4 2 3 4 5 2 2 2 
3 3 2 2 3 1 1 2 2 
3 2 4 5 1 1 0 1 1 
0 2 2 2 1 1 2 1 2 
2 3 0 1 0 1 0 2 1 
2 2 3 1 2 2 4 4 4 
0 1 0 1 1 2 1 2 1 
2 0 1 0 1 1 1 0 1 
1 0 1 1 2 2 0 1 0 
1 1 2 0 1 1 2 0 1 
2 2 0 1 1 1 1 2 3 
4 3 3 2 3 0 1 0 1 
0 1 1 1 0 1 0 1 0 
1 0 1 0 1 0 1 1 1 
1 2 1 0 0 1 1 2 0 
1 1 1 1 1 1 2 0 1 
0 1 0 1 1 0 2 0 3 
4 2 3 2 3 1 2 2 2 
0 1 0 1 0 1 0 1 0 
1 0 1 0 1 0 1 0 1 
1 1 0 1 0 1 0 1 1 
1 0 1 0 1 0 1 0 1 
0 1 1 2 0 1 0 1 1 
2 2 2 2 4 1 2 2 3 
0 1 2 2 0 1 0 1 1 
2 1 1 0 1 0 1 0 1 
0 1 0 1 0 1 0 1 0 
1 0 1 0 1 0 1 0 1 
0 1 0 1 0 1 1 0 0 
1 1 1 1 1 0 1 2 3 
1 0 1 1 0 1 1 2 2 
1 1 1 0 1 0 1 0 1 
1 0 1 0 1 0 1 0 1 
0 1 0 1 0 1 0 1 0 
1 0 1 0 1 0 1 0 1 
1 2 1 2 0 1 0 1 1 
1 0 1 0 2 1 1 0 1 
0 1 0 1 0 1 0 1 0 
1 0 1 0 1 0 1 1 1 
0 1 0 2 0 1 0 1 0 
1 1 1 0 1 0 1 0 1 
0 1 0 1 0 1 0 1 0 
1 0 1 0 1 0 1 0 1 
0 1 0 1 
Is%20terminal%20vessel 1 400 int
0 0 0 0 0 0 0 0 0 
0 0 0 0 0 0 0 0 0 
0 0 0 0 0 0 0 0 0 
0 0 0 0 0 1 1 0 1 
1 0 0 0 0 0 0 0 0 
0 0 1 0 1 0 1 0 0 
0 0 0 0 0 0 0 0 0 
1 1 1 0 1 0 0 0 1 
0 1 0 1 1 0 0 1 0 
1 1 0 0 0 0 1 1 1 
0 1 0 1 1 0 0 1 1 
0 0 1 0 1 0 0 0 0 
0 0 0 0 0 1 0 1 1 
1 0 0 0 1 0 1 1 1 
0 1 1 1 1 1 1 0 0 
0 0 0 1 1 0 0 0 1 
0 0 0 0 1 0 0 1 1 
1 1 1 0 0 1 0 1 0 
0 0 0 0 0 0 0 0 0 
1 1 1 0 1 0 1 0 1 
1 1 0 1 1 1 0 1 1 
0 0 1 0 1 1 1 0 0 
1 1 0 1 0 1 1 1 0 
1 0 0 0 1 1 1 1 1 
0 0 0 0 0 0 0 0 0 
1 1 0 0 1 0 1 0 1 
0 0 0 1 1 1 1 1 0 
1 0 1 1 1 0 1 1 1 
1 1 0 1 0 1 1 1 1 
1 0 1 0 1 1 0 1 1 
1 0 1 1 1 1 0 0 0 
0 1 0 1 1 0 0 0 0 
0 1 1 1 0 1 0 1 0 
1 1 0 1 1 1 1 1 1 
1 1 1 1 1 0 1 0 1 
1 1 1 1 0 1 0 1 1 
1 0 0 0 1 1 1 0 1 
0 1 0 1 0 1 1 1 0 
1 1 1 1 1 0 1 1 1 
1 1 1 1 1 1 1 1 0 
1 0 1 0 1 1 1 0 1 
0 1 1 1 1 1 1 1 0 
1 0 1 0 1 1 1 0 1 
0 1 1 1 0 1 1 1 1 
1 0 1 1 
POINT_DATA 401
SCALARS TubeRadius double
LOOKUP_TABLE default
0.00011335379 0.000100460125 7.4401209e-05 7.7519916333e-05 4.0829861e-05 5.6971399333e-05 2.8424992333e-05 7.5994238667e-05 1.6778409667e-05 
2.753786e-05 2.6750395333e-05 2.6816130667e-05 1.1764352e-05 1.70215e-05 2.9029416667e-05 7.242805e-05 1.1473089e-05 9.9854333333e-06 
9.566252e-06 1.5641785e-05 1.4725149667e-05 1.2554634333e-05 1.3242638e-05 1.4431173e-05 8.4972146667e-06 8.2939373333e-06 1.1957922667e-05 
1.1581399333e-05 1.9594674333e-05 1.3093086333e-05 3.6865686667e-05 5.9364504333e-05 7.4148036667e-06 1.0502494e-05 5.579529e-06 9.2263773333e-06 
9.404653e-06 4.327562e-06 1.3102556e-05 1.2961635667e-05 1.228348e-05 7.4631233333e-06 8.6914483333e-06 1.145589e-05 9.4449866667e-06 
9.945702e-06 1.0744205e-05 1.3887875333e-05 5.820069e-06 7.8859213333e-06 5.382572e-06 8.322487e-06 6.428907e-06 1.1617329333e-05 
7.3745803333e-06 1.1450308e-05 1.0410381667e-05 1.6760729e-05 8.9343043333e-06 1.1176877333e-05 1.2948855e-05 3.4986046333e-05 3.1187705e-05 
2.7456226e-05 3.813439e-06 9.249088e-06 7.108525e-06 8.9265406667e-06 9.312594e-06 1.0043162e-05 8.4401476667e-06 1.1752093333e-05 
9.661041e-06 9.672614e-06 6.17937e-06 7.0479626667e-06 5.885756e-06 9.985127e-06 8.6446186667e-06 9.015143e-06 8.440039e-06 
8.1291483333e-06 9.6263e-06 5.500248e-06 7.8871373333e-06 9.721642e-06 1.2168141333e-05 9.3085026667e-06 5.910519e-06 8.200327e-06 
6.763054e-06 7.8802923333e-06 8.804068e-06 1.0947078333e-05 5.729439e-06 8.182289e-06 8.443976e-06 1.0476687667e-05 7.270023e-06 
9.210308e-06 1.1584585e-05 1.2740927e-05 5.465078e-06 8.644326e-06 1.0465281e-05 8.0363916667e-06 8.2672626667e-06 9.526572e-06 
1.3839656667e-05 3.1007795667e-05 1.900441e-05 1.6792911667e-05 1.3354498667e-05 1.6532280667e-05 6.233167e-06 8.794729e-06 6.085195e-06 
8.977821e-06 5.572479e-06 8.400084e-06 8.2320393333e-06 8.1231486667e-06 5.854501e-06 8.620916e-06 4.933888e-06 8.105e-06 
5.857951e-06 8.14931e-06 5.622309e-06 1.072e-05 3.846752e-06 1.0387929e-05 4.402514e-06 8.881228e-06 9.1085343333e-06 
8.0279216667e-06 8.4016363333e-06 1.1064081333e-05 8.533707e-06 6.700913e-06 5.243109e-06 8.9768383333e-06 9.1162476667e-06 9.8783203333e-06 
4.72645e-06 9.1568116667e-06 8.2089083333e-06 8.1649646667e-06 8.6989276667e-06 1.0353994e-05 8.418672e-06 1.1856806e-05 5.733143e-06 
9.479835e-06 6.541046e-06 8.502169e-06 5.143451e-06 8.707403e-06 8.2863786667e-06 3.574361e-06 1.1788601667e-05 6.193504e-06 
1.6130913333e-05 2.6416245333e-05 1.3380203667e-05 1.8675677333e-05 9.2229926667e-06 1.4906748333e-05 8.9239673333e-06 1.0806895e-05 1.2487077e-05 
1.1843843667e-05 6.559811e-06 9.425375e-06 6.683081e-06 7.6188316667e-06 5.164346e-06 8.5068086667e-06 5.189807e-06 7.9834266667e-06 
7.287566e-06 8.105e-06 5.59039e-06 8.1808033333e-06 6.924915e-06 9.984947e-06 6.8919e-06 7.8721313333e-06 5.807813e-06 
9.352896e-06 9.2050953333e-06 8.0511226667e-06 7.603628e-06 7.695083e-06 8.462684e-06 9.113601e-06 6.598499e-06 8.436965e-06 
8.8451776667e-06 8.591454e-06 7.408301e-06 9.3104836667e-06 5.660151e-06 7.7520423333e-06 5.796652e-06 9.388775e-06 6.037192e-06 
8.282728e-06 5.107941e-06 8.0216953333e-06 7.8906556667e-06 9.6080946667e-06 6.386589e-06 9.491363e-06 5.571723e-06 9.47003e-06 
9.699013e-06 9.986306e-06 9.6572906667e-06 1.1001320333e-05 1.0057306667e-05 2.2229527e-05 8.724754e-06 1.022625e-05 1.1078892e-05 
1.6970926333e-05 5.655055e-06 9.818975e-06 1.09097e-05 9.4730923333e-06 6.959301e-06 8.6796513333e-06 6.777007e-06 7.9343193333e-06 
1.066489e-05 9.66727425e-06 8.7396506667e-06 8.4069396667e-06 4.573788e-06 9.129456e-06 7.536841e-06 8.974869e-06 6.086805e-06 
7.97427e-06 5.848207e-06 8.598435e-06 5.749081e-06 9.07359e-06 6.248771e-06 8.3204946667e-06 4.565219e-06 9.564347e-06 
5.655091e-06 8.526356e-06 5.895264e-06 7.8244823333e-06 7.635329e-06 7.971349e-06 7.694392e-06 1.0450887e-05 5.838854e-06 
8.94173e-06 6.846533e-06 6.938754e-06 5.737657e-06 7.7645983333e-06 5.08491e-06 9.385639e-06 8.650958e-06 6.125097e-06 
9.071128e-06 9.188905e-06 9.3265373333e-06 8.58136e-06 9.087962e-06 8.738442e-06 6.193448e-06 9.048906e-06 1.2018994333e-05 
1.5075846667e-05 8.3703833333e-06 5.812406e-06 7.2596703333e-06 1.0337554e-05 5.079047e-06 1.0007288e-05 8.722363e-06 1.1901802333e-05 
1.0800957e-05 8.3523073333e-06 1.0250954e-05 9.563766e-06 5.355834e-06 8.569152e-06 6.687396e-06 8.7191773333e-06 4.497345e-06 
7.7844966667e-06 9.874357e-06 6.585147e-06 8.890868e-06 6.011592e-06 9.678856e-06 4.796972e-06 1.0458972e-05 6.526731e-06 
8.480066e-06 6.498576e-06 9.678167e-06 4.880065e-06 9.361419e-06 5.709481e-06 8.460056e-06 7.095789e-06 8.182022e-06 
4.307333e-06 8.120899e-06 5.359256e-06 9.389298e-06 6.232444e-06 8.3096746667e-06 7.889305e-06 8.4751576667e-06 7.001299e-06 
1.0138109e-05 1.0221449e-05 1.1095139667e-05 9.0537656667e-06 1.0852887e-05 6.751073e-06 8.899339e-06 3.646059e-06 8.592232e-06 
9.801257e-06 8.3476296667e-06 7.356086e-06 7.4119953333e-06 6.283499e-06 1.1335328e-05 1.0570206e-05 8.105e-06 5.317199e-06 
7.8336506667e-06 6.275168e-06 9.826795e-06 6.878574e-06 9.434183e-06 5.952361e-06 7.059222e-06 7.385477e-06 9.41277e-06 
7.183618e-06 9.381098e-06 7.513388e-06 8.803726e-06 4.575365e-06 1.0132381e-05 5.489862e-06 9.515816e-06 9.108081e-06 
9.1577233333e-06 7.59794e-06 7.9112303333e-06 6.435797e-06 1.0292185333e-05 7.87222e-06 8.984327e-06 4.589442e-06 9.295274e-06 
5.541448e-06 7.1625663333e-06 1.0293164e-05 9.572226e-06 4.961438e-06 8.661936e-06 3.983772e-06 8.839949e-06 6.328073e-06 
8.5741393333e-06 5.886736e-06 8.0565946667e-06 7.872928e-06 9.1559173333e-06 7.172016e-06 1.0260678e-05 4.875898e-06 7.9384736667e-06 
5.516068e-06 8.1674653333e-06 7.34557e-06 8.287714e-06 6.163609e-06 9.2223963333e-06 7.052543e-06 8.267669e-06 6.037394e-06 
8.705524e-06 7.100645e-06 8.5037583333e-06 6.057988e-06 9.606743e-06 
METADATA
INFORMATION 0

FIELD FieldData 2
Vessel%20order 1 401 int
6 5 4 4 3 4 3 4 2 
3 3 3 1 2 3 4 1 1 
1 2 2 1 1 2 0 0 1 
1 2 1 3 4 0 1 0 0 
1 0 1 1 1 0 0 1 0 
1 1 2 0 0 0 0 0 1 
0 1 1 2 0 1 1 3 3 
3 0 1 0 0 1 1 0 1 
1 1 0 0 0 1 0 0 0 
0 1 0 0 1 1 1 0 1 
0 0 1 1 0 1 0 1 0 
1 1 1 0 0 1 0 0 1 
1 3 2 2 1 2 0 0 0 
1 0 0 0 0 0 0 0 1 
0 0 0 1 0 1 0 1 0 
0 0 1 0 0 0 0 0 1 
0 0 0 0 0 1 0 1 0 
1 0 1 0 0 0 0 1 0 
2 3 1 2 1 2 0 1 1 
1 0 1 0 0 0 0 0 0 
0 1 0 0 0 1 0 0 0 
1 0 0 0 0 0 1 0 0 
0 1 0 0 0 0 0 1 0 
0 0 0 0 1 0 1 0 1 
1 1 1 1 1 3 0 1 1 
2 0 1 1 1 0 0 0 0 
1 1 0 0 0 1 0 1 0 
0 0 0 0 1 0 0 0 1 
0 1 0 0 0 0 0 1 0 
1 0 0 0 0 0 1 0 0 
0 1 0 1 1 1 0 0 1 
2 0 0 0 1 0 1 0 1 
1 0 1 1 0 0 0 0 0 
0 1 0 0 0 1 0 1 0 
1 0 1 0 1 0 0 0 0 
0 1 0 1 0 0 0 0 0 
1 1 1 0 1 0 1 0 0 
1 0 0 0 0 1 1 1 0 
0 0 1 0 1 0 0 0 1 
0 1 0 1 0 1 0 1 1 
0 0 0 0 1 0 1 0 0 
0 0 1 1 0 1 0 1 0 
0 0 0 0 0 0 1 0 0 
0 0 0 1 0 0 0 1 0 
1 0 0 0 1 
Is%20terminal%20vessel 1 401 int
0 0 0 0 0 0 0 0 0 
0 0 0 0 0 0 0 0 0 
0 0 0 0 0 0 0 0 0 
0 0 0 0 0 0 1 1 0 
1 1 0 0 0 0 0 0 0 
0 0 0 1 0 1 0 1 0 
0 0 0 0 0 0 0 0 0 
0 1 1 1 0 1 0 0 0 
1 0 1 0 1 1 0 0 1 
0 1 1 0 0 0 0 1 1 
1 0 1 0 1 1 0 0 1 
1 0 0 1 0 1 0 0 0 
0 0 0 0 0 0 1 0 1 
1 1 0 0 0 1 0 1 1 
1 0 1 1 1 1 1 1 0 
0 0 0 0 1 1 0 0 0 
1 0 0 0 0 1 0 0 1 
1 1 1 1 0 0 1 0 1 
0 0 0 0 0 0 0 0 0 
0 1 1 1 0 1 0 1 0 
1 1 1 0 1 1 1 0 1 
1 0 0 1 0 1 1 1 0 
0 1 1 0 1 0 1 1 1 
0 1 0 0 0 1 1 1 1 
1 0 0 0 0 0 0 0 0 
0 1 1 0 0 1 0 1 0 
1 0 0 0 1 1 1 1 1 
0 1 0 1 1 1 0 1 1 
1 1 1 0 1 0 1 1 1 
1 1 0 1 0 1 1 0 1 
1 1 0 1 1 1 1 0 0 
0 0 1 0 1 1 0 0 0 
0 0 1 1 1 0 1 0 1 
0 1 1 0 1 1 1 1 1 
1 1 1 1 1 1 0 1 0 
1 1 1 1 1 0 1 0 1 
1 1 0 0 0 1 1 1 0 
1 0 1 0 1 0 1 1 1 
0 1 1 1 1 1 0 1 1 
1 1 1 1 1 1 1 1 1 
0 1 0 1 0 1 1 1 0 
1 0 1 1 1 1 1 1 1 
0 1 0 1 0 1 1 1 0 
1 0 1 1 1 0 1 1 1 
1 1 0 1 1 
